{
  "index": [
    {
      "title": "APIs",
      "headings": [
        {
          "heading": null,
          "title": "",
          "items": [
            {
              "title": "Bitbucket Cloud REST API",
              "url": "/bitbucket/api/2/reference"
            },
            {
              "title": "Bitbucket Server REST API",
              "url": "/server/bitbucket/reference/rest-api/"
            },
            {
              "title": "Confluence Cloud REST API",
              "url": "/cloud/confluence/rest/"
            },
            {
              "title": "Confluence Server REST API",
              "url": "https://docs.atlassian.com/ConfluenceServer/rest/latest"
            },
            {
              "title": "Confluence Server API",
              "url": "https://docs.atlassian.com/ConfluenceServer/javadoc/latest"
            },
            {
              "title": "Hipchat REST API",
              "url": "https://www.hipchat.com/docs/apiv2"
            },
            {
              "title": "Jira Cloud REST API",
              "url": "/cloud/jira/platform/rest"
            },
            {
              "title": "Jira Server REST API",
              "url": "https://docs.atlassian.com/jira/REST/server"
            },
            {
              "title": "Jira Server API",
              "url": "https://docs.atlassian.com/jira/server"
            },
            {
              "title": "Jira Service Desk Cloud REST API",
              "url": "/cloud/jira/service-desk/rest/"
            },
            {
              "title": "Jira Service Desk Server REST API",
              "url": "https://docs.atlassian.com/jira-servicedesk/REST/server/"
            },
            {
              "title": "Jira Software Cloud REST API",
              "url": "https://docs.atlassian.com/jira-software/REST/cloud"
            },
            {
              "title": "Jira Software Server REST API",
              "url": "https://docs.atlassian.com/jira-software/REST/server"
            },
            {
              "title": "Marketplace REST API",
              "url": "/platform/marketplace/rest/"
            },
            {
              "title": "Opsgenie REST API",
              "url": "https://docs.opsgenie.com/docs/api-overview"
            },
            {
              "title": "Statuspage API",
              "url": "https://doers.statuspage.io/api/v1/"
            },
            {
              "title": "Stride REST API",
              "url": "/cloud/stride/rest"
            },
            {
              "title": "Trello REST API",
              "url": "https://developers.trello.com/reference/"
            }
          ],
          "name": ""
        }
      ],
      "section": null,
      "name": "apis"
    }
  ]
}
